…
      group_by(id) %>% 
      summarise(mean_stressed_24h = mean(stressed_24h),
                SD_stressed_24h = sd(stressed_24h),
                mean_stressed_moment = mean(stressed_moment),
                SD_stressed_moment = sd(stressed_moment),
                mean_depressed = mean(depressed),
                SD_depressed = sd(depressed),
                mean_satisfied = mean(satisfied),
                SD_satisfied = sd(satisfied),
                mean_motivated = mean(motivated),
                SD_motivated = sd(motivated),
                mean_aroused = mean(aroused),
                SD_aroused = sd(aroused))

    ## # A tibble: 52 × 13
    ##       id mean_stressed_24h SD_stressed_24h mean_stressed_moment
    ##    <dbl>             <dbl>           <dbl>                <dbl>
    ##  1     2              45.2            27.7                 9.62
    ##  2     3              55.1            19.5                 8.63
    ##  3     5              39.0            29.3                 8.40
    ##  4     6              28.6            19.1                 6.80
    ##  5     7              59.5            25.2                10.0 
    ##  6     8              61.4            21.6                10.2 
    ##  7     9              60.5            25.9                 8.60
    ##  8    11              40.7            32.5                 7.84
    ##  9    12              34.4            26.9                 7.64
    ## 10    13              40.0            25.1                 8.12
    ## # ℹ 42 more rows
    ## # ℹ 9 more variables: SD_stressed_moment <dbl>, mean_depressed <dbl>,
    ## #   SD_depressed <dbl>, mean_satisfied <dbl>, SD_satisfied <dbl>,
    ## #   mean_motivated <dbl>, SD_motivated <dbl>, mean_aroused <dbl>,
    ## #   SD_aroused <dbl>
…
