Calculating the number of languages spoken in each country:

    ## # A tibble: 241 × 2
    ##    speaking_country       language_count
    ##    <chr>                           <int>
    ##  1 Papua New Guinea                  826
    ##  2 Indonesia                         687
    ##  3 Nigeria                           504
    ##  4 United States                     353
    ##  5 China                             315
    ##  6 Mexico                            289
    ##  7 Cameroon                          281
    ##  8 Congo                             278
    ##  9 Democratic Republic of            225
    ## 10 India                             209
    ## # ℹ 231 more rows
…
