…
    transmute(
     table,  `Country/Region`, `Province/State`, Lat, Long, 
      early2020 = `4/30/20`-`2/1/20`,
      late2020 = `9/30/20`-`6/1/20`, 
    ) %>% 
    #  dplyr::filter( `Country/Region` == "Germany") %>% 
      pivot_longer(ends_with("2020"), names_to = "Time") %>% 
      pivot_wider(names_from = "table", values_from = "value") %>% 
      mutate(Mortality= Death / Cases)

    ## # A tibble: 84 × 8
    ##    `Country/Region` `Province/State`   Lat  Long Time      Death Cases Mortality
    ##    <chr>            <chr>            <dbl> <dbl> <chr>     <dbl> <dbl>     <dbl>
    ##  1 China            Anhui             31.8  117. early2020     6   694   0.00865
    ##  2 China            Anhui             31.8  117. late2020      0     0 NaN      
    ##  3 China            Beijing           40.2  116. early2020     8   425   0.0188 
    ##  4 China            Beijing           40.2  116. late2020      0   343   0      
    ##  5 China            Chongqing         30.1  108. early2020     5   332   0.0151 
    ##  6 China            Chongqing         30.1  108. late2020      0     5   0      
    ##  7 China            Fujian            26.1  118. early2020     1   212   0.00472
    ##  8 China            Fujian            26.1  118. late2020      0    51   0      
    ##  9 China            Gansu             35.8  104. early2020     2    99   0.0202 
    ## 10 China            Gansu             35.8  104. late2020      0    31   0      
    ## # ℹ 74 more rows
