…
    ## Warning: There were 7 warnings in `mutate()`.
    ## The first warning was:
    ## ℹ In argument: `across(starts_with("qd3_"), as.double)`.
    ## Caused by warning:
    ## ! NAs introduced by coercion
    ## ℹ Run `dplyr::last_dplyr_warnings()` to see the 6 remaining warnings.

    ## # A tibble: 27 × 8
    ##    isocntry mean_TV mean_TVviaInternet mean_radio mean_podcast mean_writtenPress
    ##    <chr>      <dbl>              <dbl>      <dbl>        <dbl>             <dbl>
    ##  1 AT          6.13              2.65        4.71        1.13               3.92
    ##  2 BE          5.88              2.27        4.72        1.12               3.18
    ##  3 BG          6.57              0.841       3.59        0.567              1.17
    ##  4 CY          6.23              2.72        4.34        0.510              1.06
    ##  5 CZ          5.12              2.22        4.59        1.94               2.14
    ##  6 DE          5.92              2.28        5.36        0.945              4.04
    ##  7 DK          5.78              3.25        5.21        1.70               4.15
    ##  8 EE          5.48              2.24        5.11        1.18               3.86
    ##  9 ES          6.01              1.66        3.12        0.653              1.83
    ## 10 FI          6.03              3.18        5.14        0.797              5.39
    ## # ℹ 17 more rows
    ## # ℹ 2 more variables: mean_Internet <dbl>, mean_SocialMedia <dbl>
…
