---

editor_options: 
  markdown: 
    wrap: 72
---

## [1] TRUE

library(readxl)

Intervention_data \<- read_excel("Projects/lea-immenkamp/data.xlsx", sheet = "Intervention data") %\>% drop_na() Intervention_data

## \# A tibble: 119 × 14

## child_id Intervention i1t0 i2t0 i3t0 i4t0 i5t0 i1 i2 i3 i4

## <dbl> <dbl> <dbl> <dbl> <dbl> <dbl> <dbl> <dbl> <dbl> <dbl> <dbl>

## 1 1 1 0 0 0 0 0 0 1 1 1

## 2 1 2 0 1 0 0 0 1 1 1 0

## 3 1 1 0 0 0 1 1 1 1 1 1

## 4 1 1 1 1 0 0 0 0 1 0 0

## 5 1 2 0 0 1 1 0 1 1 1 1

## 6 1 2 0 1 0 1 0 1 1 0 1

## 7 2 1 0 1 0 0 1 1 1 0 0

## 8 2 2 1 0 1 0 1 0 0 1 1

## 9 2 1 0 0 1 1 0 1 1 1 1

## 10 2 1 0 0 0 0 0 1 1 0 0

## \# ℹ 109 more rows
…
- Calculating the total value before intervention
- Calculating the total value before intervention

<!-- -->

Intervention_data$QIpre <- rowSums(Intervention_data[,c("i1t0","i2t0","i3t0","i4t0","i5t0")])
Intervention_data$QIpost \<- rowSums(Intervention_data[,c("i1","i2","i3","i4","i5")])

- Calculating mean of sweet

<!-- -->

df \<- Q_data %\>% mutate(sweet_mean=pmap_dbl(select(.,sweet1,sweet2,sweet3,sweet4),\~mean(c(...)))) %\>% select("id child","id age",sweet_mean) %\>% rename("child_id"="id child") %\>% right_join(Intervention_data,by="child_id") df

## \# A tibble: 119 × 18

## child_id `id age` sweet_mean Intervention i1t0 i2t0 i3t0 i4t0 i5t0 i1

## <dbl> <dbl> <dbl> <dbl> <dbl> <dbl> <dbl> <dbl> <dbl> <dbl>

## 1 1 11 3 1 0 0 0 0 0 0

## 2 1 11 3 2 0 1 0 0 0 1

## 3 1 11 3 1 0 0 0 1 1 1

## 4 1 11 3 1 1 1 0 0 0 0

## 5 1 11 3 2 0 0 1 1 0 1

## 6 1 11 3 2 0 1 0 1 0 1

## 7 2 8 3.25 1 0 1 0 0 1 1

## 8 2 8 3.25 2 1 0 1 0 1 0

## 9 2 8 3.25 1 0 0 1 1 0 1

## 10 2 8 3.25 1 0 0 0 0 0 1

## \# ℹ 109 more rows
…
