…
    Intervention_data <- Intervention_data %>% mutate(QIpre=rowSums(across(c(i1t0:i5t0))),QIpost=rowSums(across(c(i1:i5))))

- Calculating mean of sweet

<!-- -->

    # Calculating mean of sweet
    df_withmean <- Q_data %>% 
      mutate(sweet_mean=pmap_dbl(select(.,sweet1,sweet2,sweet3,sweet4),~mean(c(...)))) %>%
      select("id child","id age",sweet_mean) %>%
      rename("child_id"="id child") %>%
      right_join(Intervention_data,by="child_id")
    df_withmean

    ## # A tibble: 119 × 18
    ##    child_id `id age` sweet_mean Intervention  i1t0  i2t0  i3t0  i4t0  i5t0    i1
    ##       <dbl>    <dbl>      <dbl>        <dbl> <dbl> <dbl> <dbl> <dbl> <dbl> <dbl>
    ##  1        1       11       3               1     0     0     0     0     0     0
    ##  2        1       11       3               2     0     1     0     0     0     1
    ##  3        1       11       3               1     0     0     0     1     1     1
    ##  4        1       11       3               1     1     1     0     0     0     0
    ##  5        1       11       3               2     0     0     1     1     0     1
    ##  6        1       11       3               2     0     1     0     1     0     1
    ##  7        2        8       3.25            1     0     1     0     0     1     1
    ##  8        2        8       3.25            2     1     0     1     0     1     0
    ##  9        2        8       3.25            1     0     0     1     1     0     1
    ## 10        2        8       3.25            1     0     0     0     0     0     1
    ## # ℹ 109 more rows
    ## # ℹ 8 more variables: i2 <dbl>, i3 <dbl>, i4 <dbl>, i5 <dbl>, Motivation <dbl>,
    ## #   Helpfulness <dbl>, QIpre <dbl>, QIpost <dbl>
…
    # "0" presents "pre"; "1" prsents "0" 
    plot_data <-df_withmean  %>% select(child_id, Intervention, QIpre,QIpost) %>%group_by(child_id, Intervention) %>%
    mutate(trial_id = row_number()) %>%
    ungroup() %>%
    mutate(pair_id = paste(child_id, Intervention, trial_id, sep = "_")) %>% pivot_longer(cols = c(QIpre,QIpost),names_to = "time",values_to = "score") %>% mutate(
        time = factor(time, 
                      levels = c("QIpre","QIpost"),
                      labels = c(0, 1))
      )  

       
      
    plot_data

    ## # A tibble: 238 × 6
    ##    child_id Intervention trial_id pair_id time  score
    ##       <dbl>        <dbl>    <int> <chr>   <fct> <dbl>
    ##  1        1            1        1 1_1_1   0         0
    ##  2        1            1        1 1_1_1   1         4
    ##  3        1            2        1 1_2_1   0         1
    ##  4        1            2        1 1_2_1   1         3
    ##  5        1            1        2 1_1_2   0         2
    ##  6        1            1        2 1_1_2   1         5
    ##  7        1            1        3 1_1_3   0         2
    ##  8        1            1        3 1_1_3   1         1
    ##  9        1            2        2 1_2_2   0         2
    ## 10        1            2        2 1_2_2   1         4
    ## # ℹ 228 more rows

    summary_data <- plot_data %>% group_by(child_id,Intervention,time) %>% summarise(mean=mean(score,na.rm=TRUE), .groups = "drop") 
    summary_data

    ## # A tibble: 80 × 4
    ##    child_id Intervention time   mean
    ##       <dbl>        <dbl> <fct> <dbl>
    ##  1        1            1 0      1.33
    ##  2        1            1 1      3.33
    ##  3        1            2 0      1.67
    ##  4        1            2 1      3.33
    ##  5        2            1 0      1.33
    ##  6        2            1 1      3.67
    ##  7        2            2 0      2   
    ##  8        2            2 1      3   
    ##  9        3            1 0      1   
    ## 10        3            1 1      2.33
    ## # ℹ 70 more rows
…
