…
    dat_grouped

    ## # A tibble: 187 × 16
    ##    Warship             Tier Type  Nation Battles Win.rate Avg..frags Avg..damage
    ##    <chr>              <int> <chr> <chr>    <dbl>    <dbl> <chr>            <dbl>
    ##  1 "Bismarck "            8 "Bat… "Germ…  2.26e7     49.6 "0.65 "          51406
    ##  2 "Shimakaze "          10 "Des… "Japa…  2.05e7     48.6 "0.7 "           44588
    ##  3 "Yamato "             10 "Bat… "Japa…  1.75e7     48.0 "0.7 "           83570
    ##  4 "Grosser Kurf\xfc…    10 "Bat… "Germ…  1.72e7     49.1 "0.69 "          74377
    ##  5 "Gneisenau "           7 "Bat… "Germ…  1.46e7     50.0 "0.7 "           43851
    ##  6 "North Carolina "      8 "Bat… "U.S.…  1.41e7     48.8 "0.67 "          52844
    ##  7 "Montana "            10 "Bat… "U.S.…  1.37e7     48.8 "0.77 "          81716
    ##  8 "N\xfcrnberg "         6 "Cru… "Germ…  1.28e7     49.2 "0.53 "          25825
    ##  9 "Hindenburg "         10 "Cru… "Germ…  1.27e7     48.4 "0.66 "          72320
    ## 10 "New Mexico "          6 "Bat… "U.S.…  1.24e7     50.0 "0.72 "          39705
    ## # ℹ 177 more rows
    ## # ℹ 8 more variables: Avg..experience <chr>, Avg..planes.destroyed <chr>,
    ## #   Kills...deaths <chr>, ship_type_count <int>, total_battles <dbl>,
    ## #   avg_winrate <dbl>, avg_damage <dbl>, max_battles <dbl>
…
    dat_points

    ## # A tibble: 67 × 3
    ##    Nation           Tier total_battle_points
    ##    <chr>           <int>               <dbl>
    ##  1 "Commonwealth "    10                   0
    ##  2 "Europe "           5                   0
    ##  3 "France "           3                   0
    ##  4 "France "           4                   0
    ##  5 "France "           5                   0
    ##  6 "France "           6                   0
    ##  7 "France "           7                   0
    ##  8 "France "           8                   0
    ##  9 "France "           9                   0
    ## 10 "France "          10                   0
    ## # ℹ 57 more rows
…
    # Top Ship (Ship with the highest battle points for each nation and tier)
    top_ship <- dat_points %>%
      group_by(Nation, Tier) %>%
      filter(total_battle_points == max(total_battle_points, na.rm = TRUE)) %>%
      ungroup()  

    top_ship

    ## # A tibble: 67 × 3
    ##    Nation           Tier total_battle_points
    ##    <chr>           <int>               <dbl>
    ##  1 "Commonwealth "    10                   0
    ##  2 "Europe "           5                   0
    ##  3 "France "           3                   0
    ##  4 "France "           4                   0
    ##  5 "France "           5                   0
    ##  6 "France "           6                   0
    ##  7 "France "           7                   0
    ##  8 "France "           8                   0
    ##  9 "France "           9                   0
    ## 10 "France "          10                   0
    ## # ℹ 57 more rows
…
