…
        # (5) use coded names according to the schema instead of clear names and delete column names
        PatientCode = sprintf("MS_XS_%03d", as.integer(as.character(`No.`)))
      ) %>%
      select(-`Patient Name`)

    ## Warning: There were 3 warnings in `mutate()`.
    ## The first warning was:
    ## ℹ In argument: `MSDuration_months = case_when(...)`.
    ## Caused by warning:
    ## ! NAs durch Umwandlung erzeugt
    ## ℹ Run `dplyr::last_dplyr_warnings()` to see the 2 remaining warnings.

    print(ms_cleaned)

    ## # A tibble: 39 × 18
    ##      No.   Age Sex    `Abslang Test` Smoking Alcohol `Other Diseases` Medication
    ##    <dbl> <dbl> <chr>           <dbl>   <dbl>   <dbl> <chr>            <chr>     
    ##  1     1    24 Female              0       0       0 -                0         
    ##  2     2    40 Female              0       0       0 Heart palpitati… Chlordiaz…
    ##  3     3    46 Female              0       0       0 Tachycardia, mi… Corticost…
    ##  4     4    37 Female              0       0       0 -                Avonex, R…
    ##  5     7    21 Female              0       0       0 Polycystic ovar… Rituximab…
    ##  6     9    28 Female              0       0       0 Gastrointestina… Midazolam…
    ##  7    10    39 Female              0       0       0 Hypothyroidism   Texifoma,…
    ##  8    12    40 Male                0       0       0 -                Fampridine
    ##  9    13    56 Male                0       0       0 -                Corticost…
    ## 10    17    21 Female              0       0       0 -                Corticost…
    ## # ℹ 29 more rows
    ## # ℹ 10 more variables: `MS Duration` <chr>, `NO test result` <dbl>,
    ## #   `Cortisol Test Result` <dbl>, `BAI Score` <dbl>,
    ## #   `Severity of BAI test` <chr>, MSDuration_months <dbl>,
    ## #   Other_Diseases_Count <dbl>, Corticosteroid <chr>, BCellDepletion <chr>,
    ## #   PatientCode <chr>
…
