…
Afterwards I calculated the average value of this dummy variable. As
soon as this variable was once 0 (at some point the cell died), the mean
will also be below 1. Thus, I identified the cells that died in each
repsective group.

You can see that in the *treatment group* only one cell (250) died at
one point, while in the *control group* five cells died.

    ## # A tibble: 141 × 3
    ##    Cell.ID rel_intensity_above_40 alive
    ##      <int>                  <dbl> <dbl>
    ##  1     250                  0.697     0
    ##  2       0                  1         1
    ##  3       1                  1         1
    ##  4       2                  1         1
    ##  5       3                  1         1
    ##  6       4                  1         1
    ##  7       5                  1         1
    ##  8       6                  1         1
    ##  9       7                  1         1
    ## 10       8                  1         1
    ## # ℹ 131 more rows

    ## # A tibble: 129 × 3
    ##    Cell.ID rel_intensity_above_40 alive
    ##      <int>                  <dbl> <dbl>
    ##  1       0                 0.508      0
    ##  2       2                 0.130      0
    ##  3       3                 0.195      0
    ##  4       6                 0.752      0
    ##  5       8                 0.0835     0
    ##  6       1                 1          1
    ##  7       5                 1          1
    ##  8       7                 1          1
    ##  9       9                 1          1
    ## 10      10                 1          1
    ## # ℹ 119 more rows
…
