…
    # removing all the cases with NA
    data1$year <- as.integer(str_extract(data1$year, regex("^[0-9]{4}")))

    list <- c("2011-2012-2013", "marzo", "29", "n", "N/A", "NN", "S.I", "s.i.", "S.I/S.I/2009", "S/F")
    for (i in list) {
      data1$artists<-na_if(data1$artists,i)
      
    }


    data2<-data1[complete.cases(data1), ]
    data2

    ## # A tibble: 19,451 × 3
    ##    galleries                artists                year
    ##    <chr>                    <chr>                 <int>
    ##  1 Centro Colombo Americano Antonio Maria Benitez  1980
    ##  2 Centro Colombo Americano Lorena Espitia         2009
    ##  3 Centro Colombo Americano Alejandro Castano      2007
    ##  4 Centro Colombo Americano Mauricio MOller        1995
    ##  5 Centro Colombo Americano Barbara Nessim         1995
    ##  6 Centro Colombo Americano Alvaro Salamanca       1995
    ##  7 Centro Colombo Americano Cecilia Ordonez        1995
    ##  8 Centro Colombo Americano Maria Moran            1995
    ##  9 Centro Colombo Americano Ramon Vanegas          1995
    ## 10 Centro Colombo Americano Leyla Castaneda        1978
    ## # ℹ 19,441 more rows
…
    data2$decade <- data2$year%/%10*10 #dividing by ten "omits" the last digit and multiplying by ten gives us the decade of the artists' invitation
    data2<-drop_na(data2)

### Counting the time artists were invited to which galleries and merging a complete data frame

Lastly, the data set needs a variable that displays, how many times
artists were invited to each gallery. To create such a data frame, we
need to group the data according to the artists and galleries and then
count how many times a gallery invited the artist. That way, duplicated
information is eliminated and the data frame is reduced from 19.738 to
8,567 rows

    ## # A tibble: 8,506 × 4
    ## # Groups:   artists, galleries, decade [8,506]
    ##    artists             galleries                                    decade     n
    ##    <chr>               <chr>                                         <dbl> <int>
    ##  1 " Angel Rodriguez." Aexandes / Galeria Espacio Alterno             2000     1
    ##  2 " Arnulfo Luna"     Galeria Alfred Wild                            1980     4
    ##  3 " Jhon de Rhodes"   Galeria Belarca                                1990     1
    ##  4 " Josh Blackwell"   Galeria Casas Riegner                          2010     1
    ##  5 " Juan Mejia"       SN MaCarena                                    2010     1
    ##  6 " Juan Mejia."      SN MaCarena                                    2010     2
    ##  7 " Paulo Licona"     LA Galeria Arte Contemporaneo                  2010     1
    ##  8 " Plashtic"         Casa Tres Cruces                               2010     1
    ##  9 " Plinio Barraza"   Galeria El Museo                               2000     2
    ## 10 "10 artistas"       Kastalian Art - Galeria de Arte Independien…   2010     1
    ## # ℹ 8,496 more rows
…
