…
    ## Rows: 498022 Columns: 13
    ## ── Column specification ────────────────────────────────────────────────────────
    ## 
    ## chr (8): Name, Fed, Sex, Tit, WTit, OTit, FOA, Flag
    ## dbl (5): ID, APR25, Gms, K, Birthday
    ## 
    ## ℹ Use `spec()` to retrieve the full column specification for this data.
    ## ℹ Specify the column types or set `show_col_types = FALSE` to quiet this message.

    ## # A tibble: 489,590 × 5
    ##    Name                           Fed   APR25 Birthday bin     
    ##    <chr>                          <chr> <dbl>    <dbl> <fct>   
    ##  1 A B M Jobair, Hossain          BAN    1750     1998 25-34   
    ##  2 A C J John                     IND    1438     1987 35-45   
    ##  3 A Chakravarthy                 IND    1491     1986 35-45   
    ##  4 A Darshil                      IND    1427     2013 below 16
    ##  5 A E M, Doshtagir               BAN    1904     1974 above 45
    ##  6 A F M Ehteshamul, Hoque (tuhin BAN    1796     1977 above 45
    ##  7 A hamed Ashraf, Abdallah       EGY    1837     2001 16-24   
    ##  8 A Hamid, Harman                MAS    1552     1970 above 45
    ##  9 A I Sabbir                     BAN    1607     1995 25-34   
    ## 10 A K, Kalshyan                  IND    1803     1964 above 45
    ## 11 A La, Teng Hua                 CHN    1949     1993 25-34   
    ## 12 A Q M Salahuddin, Khan         BAN    1695     1977 above 45
    ## 13 A S M Khalid, Hasan            BAN    1751     1988 35-45   
    ## 14 A S M Mashrur, Zaman           BAN    1614     2008 below 16
    ## 15 A S M Soyaeb, Reza             BAN    1592     2006 16-24   
    ## 16 A, L M Wayes Faruki            BAN    1714     2015 below 16
    ## 17 A, N M Ziaul Islam Mithu       BAN    1653     1974 above 45
    ## 18 A, Sohita                      IND    1668     1995 25-34   
    ## 19 A. HUDSON                      IND    1644     2013 below 16
    ## 20 A. K. Azad, Akhond             BAN    1779     1971 above 45
    ## # ℹ 489,570 more rows
…
