…
And those were the groups in pnns\_groups\_2:

    ## # A tibble: 38 × 2
    ## # Groups:   pnns_groups_2 [38]
    ##    pnns_groups_2                        n
    ##    <chr>                            <int>
    ##  1 Alcoholic beverages                  4
    ##  2 Appetizers                         353
    ##  3 Artificially sweetened beverages    66
    ##  4 Biscuits and cakes                1678
    ##  5 Bread                              770
    ##  6 Breakfast cereals                 1263
    ##  7 Cereals                           1182
    ##  8 Cheese                            3337
    ##  9 Chocolate products                 902
    ## 10 Dairy desserts                     551
    ## # ℹ 28 more rows
…
Now it looks like this:

    ## # A tibble: 29 × 2
    ## # Groups:   pnns_groups_2 [29]
    ##    pnns_groups_2                        n
    ##    <chr>                            <int>
    ##  1 Alcoholic beverages                  4
    ##  2 Appetizers                         353
    ##  3 Artificially sweetened beverages    66
    ##  4 Cereals                           2445
    ##  5 Cheese                            3337
    ##  6 Chocolate products                 902
    ##  7 Dressings and sauces              1732
    ##  8 Dried fruits                       201
    ##  9 Eggs                               153
    ## 10 Fats                               674
    ## # ℹ 19 more rows
…
    categories <- unique(data$pnns_groups_2)
    grades <- c('a', 'b', 'c', 'd', 'e')
    combinations <- expand.grid(nutriscore_grade = grades, ecoscore_grade = grades)

I then grouped the counts for each foodgroup:

    grouped_counts <- data %>% 
      group_by( pnns_groups_2, nutriscore_grade, ecoscore_grade ) %>% 
      count() %>% 
      ungroup()

    grouped_counts

    ## # A tibble: 496 × 4
    ##    pnns_groups_2       nutriscore_grade ecoscore_grade     n
    ##    <chr>               <chr>            <chr>          <int>
    ##  1 Alcoholic beverages e                c                  3
    ##  2 Alcoholic beverages e                d                  1
    ##  3 Appetizers          a                b                  7
    ##  4 Appetizers          b                a                  2
    ##  5 Appetizers          b                b                  8
    ##  6 Appetizers          b                e                  1
    ##  7 Appetizers          c                a                 13
    ##  8 Appetizers          c                b                 84
    ##  9 Appetizers          c                c                  3
    ## 10 Appetizers          c                e                  3
    ## # ℹ 486 more rows
…
