…
    inflation_by_year <- movies %>%
      group_by(Release_Year) %>%
      summarise(
        sum_gross      = sum(Gross_collection, na.rm = TRUE),
        sum_equivalent = sum(Gross_equivalent, na.rm = TRUE),
        .groups = "drop"
      ) %>%
      mutate(
        Inflation_Rate = (sum_equivalent - sum_gross) / sum_gross * 100
      ) %>%
      arrange(Release_Year)

    print(inflation_by_year)

    ## # A tibble: 51 × 4
    ##    Release_Year  sum_gross sum_equivalent Inflation_Rate
    ##           <int>      <dbl>          <dbl>          <dbl>
    ##  1         1970  372430000     2413030000          548.
    ##  2         1971  261160000     1586560000          507.
    ##  3         1972  391840000     2332590000          495.
    ##  4         1973  419790000     2296300000          447.
    ##  5         1974  413190000     2094420000          407.
    ##  6         1975  631300000     3014700000          377.
    ##  7         1976  383160000     1705740000          345.
    ##  8         1977 1043110000     4442130000          326.
    ##  9         1978  622270000     2397590000          285.
    ## 10         1979  755640000     2697470000          257.
    ## # … with 41 more rows
…
