…
    dataNew<-bind_rows(back_1,back_2,back_3)
    print(dataNew)

    ## # A tibble: 1,266 × 5
    ##        SID accuracy timezone    rt type  
    ##      <int>    <dbl> <chr>    <dbl> <chr> 
    ##  1 1411101    1     06:00     648. 1_back
    ##  2 1411103    0.944 06:00     810. 1_back
    ##  3 1411104    1     06:00     947. 1_back
    ##  4 1411105    1     06:00     721. 1_back
    ##  5 1411106    0.630 06:00     984. 1_back
    ##  6 1411107    0.944 06:00     695. 1_back
    ##  7 1411108    0.909 06:00     845. 1_back
    ##  8 1411109    0.857 06:00     580. 1_back
    ##  9 1411110    0.95  06:00     653. 1_back
    ## 10 1411112    1     06:00     833. 1_back
    ## # … with 1,256 more rows
…
