…
**Finally we got all requested variables in one table**

------------------------------------------------------------------------

## Plotting the Graph Part:

------------------------------------------------------------------------

First get them into a long-format:

    tidy_var <- pivot_longer(merged_var, cols = -c(Team, Position), names_to = "Kennzahl", values_to = "Wert")%>%
      mutate("Kennzahl" = as.factor(Kennzahl))
    tidy_var

    ## # A tibble: 585 × 4
    ##    Team         Position Kennzahl            Wert
    ##    <chr>        <fct>    <fct>              <dbl>
    ##  1 SVG_Lüneburg libero   Home               14   
    ##  2 SVG_Lüneburg libero   Away               14   
    ##  3 SVG_Lüneburg libero   Total              28   
    ##  4 SVG_Lüneburg libero   Victories          17   
    ##  5 SVG_Lüneburg libero   Losses             11   
    ##  6 SVG_Lüneburg libero   avg_sets            3.75
    ##  7 SVG_Lüneburg libero   avg_point_per_1set 23.5 
    ##  8 SVG_Lüneburg libero   max_point          33   
    ##  9 SVG_Lüneburg libero   min_point          12   
    ## 10 SVG_Lüneburg libero   avg_ballpoint_home 91.6 
    ## # ℹ 575 more rows
…
