…
    NVDA_monthly <- NVDA %>%
      mutate(month = format(Date, "%Y-%m")) %>%
      group_by(month) %>%
      summarise(mean_close = mean(Close, na.rm = TRUE))

    NVDA_weekly <- NVDA %>%
      mutate(week = format(Date, "%Y-%W")) %>%
      group_by(week) %>%
      summarise(mean_close = mean(Close, na.rm = TRUE))

    print(NVDA_monthly)

    ## # A tibble: 290 × 2
    ##    month   mean_close
    ##    <chr>        <dbl>
    ##  1 2000-02       1.30
    ##  2 2000-03       1.87
    ##  3 2000-04       1.75
    ##  4 2000-05       2.01
    ##  5 2000-06       2.87
    ##  6 2000-07       2.65
    ##  7 2000-08       2.95
    ##  8 2000-09       3.08
    ##  9 2000-10       2.74
    ## 10 2000-11       2.58
    ## # ℹ 280 more rows

    print(NVDA_weekly)

    ## # A tibble: 1,264 × 2
    ##    week    mean_close
    ##    <chr>        <dbl>
    ##  1 2000-09       1.27
    ##  2 2000-10       1.85
    ##  3 2000-11       2.33
    ##  4 2000-12       2.00
    ##  5 2000-13       1.68
    ##  6 2000-14       1.85
    ##  7 2000-15       1.69
    ##  8 2000-16       1.66
    ##  9 2000-17       1.77
    ## 10 2000-18       1.87
    ## # ℹ 1,254 more rows
…
