…
    # 2.3.3 (its 2.3.2 in the task?) Stacked barplot: Percentage of Frodo's words per chapter
    # For each chapter, compute total words and Frodo's words
    chapter_frodo <- lotr_full %>%
      group_by(Film, Chapter) %>%
      summarise(total_chapter = sum(Words, na.rm = TRUE),
                frodo_chapter = sum(Words[Character == "Frodo"], na.rm = TRUE), .groups = "drop") %>%
      mutate(percent_frodo = frodo_chapter / total_chapter * 100,
             chapter_label = paste0(Film, "\n", Chapter))

    print(chapter_frodo) 

    ## # A tibble: 188 × 6
    ##    Film          Chapter total_chapter frodo_chapter percent_frodo chapter_label
    ##    <chr>         <chr>           <dbl>         <dbl>         <dbl> <chr>        
    ##  1 The Fellowsh… 01: Pr…           489             0          0    "The Fellows…
    ##  2 The Fellowsh… 02: Co…           214             0          0    "The Fellows…
    ##  3 The Fellowsh… 03: Th…           417           128         30.7  "The Fellows…
    ##  4 The Fellowsh… 04: Ve…           411             0          0    "The Fellows…
    ##  5 The Fellowsh… 05: A …           423            32          7.57 "The Fellows…
    ##  6 The Fellowsh… 06: Fa…           330             0          0    "The Fellows…
    ##  7 The Fellowsh… 07: Ke…            99            33         33.3  "The Fellows…
    ##  8 The Fellowsh… 08: Th…           124             0          0    "The Fellows…
    ##  9 The Fellowsh… 09: At…           290            17          5.86 "The Fellows…
    ## 10 The Fellowsh… 10: Th…           797           139         17.4  "The Fellows…
    ## # ℹ 178 more rows
…
    # 2.4: Optional: Character connections (co-occurrence heatmap)

    # For each chapter, get all characters that appear
    # Then generate all pairs of characters within that chapter and count co-occurrences

    # First we need the list of unique chapters with their characters
    chapter_characters <- lotr_full %>%
      select(Film, Chapter, Character) %>%
      distinct()  # each character once per chapter
    print(chapter_characters) # ok looks good.

    ## # A tibble: 731 × 3
    ##    Film                       Chapter                Character  
    ##    <chr>                      <chr>                  <chr>      
    ##  1 The Fellowship Of The Ring 01: Prologue           Bilbo      
    ##  2 The Fellowship Of The Ring 01: Prologue           Elrond     
    ##  3 The Fellowship Of The Ring 01: Prologue           Galadriel  
    ##  4 The Fellowship Of The Ring 01: Prologue           Gollum     
    ##  5 The Fellowship Of The Ring 02: Concerning Hobbits Bilbo      
    ##  6 The Fellowship Of The Ring 03: The Shire          Bilbo      
    ##  7 The Fellowship Of The Ring 03: The Shire          Frodo      
    ##  8 The Fellowship Of The Ring 03: The Shire          Gandalf    
    ##  9 The Fellowship Of The Ring 03: The Shire          Hobbit Kids
    ## 10 The Fellowship Of The Ring 03: The Shire          Hobbits    
    ## # ℹ 721 more rows
…
    # Generate pairs per chapter
    pairs_list <- chapter_characters %>%
      group_by(Film, Chapter) %>%
      summarise(chars = list(Character), .groups = "drop") %>%
      mutate(pairs = map(chars, generate_pairs)) %>%
      unnest(pairs, keep_empty = FALSE) %>%
      mutate(Character1 = map_chr(pairs, 1),
             Character2 = map_chr(pairs, 2)) %>%
      select(Film, Chapter, Character1, Character2)

    print(pairs_list) # looks good, we have pairs of characters per chapter.

    ## # A tibble: 1,501 × 4
    ##    Film                       Chapter       Character1 Character2 
    ##    <chr>                      <chr>         <chr>      <chr>      
    ##  1 The Fellowship Of The Ring 01: Prologue  Bilbo      Elrond     
    ##  2 The Fellowship Of The Ring 01: Prologue  Bilbo      Galadriel  
    ##  3 The Fellowship Of The Ring 01: Prologue  Bilbo      Gollum     
    ##  4 The Fellowship Of The Ring 01: Prologue  Elrond     Galadriel  
    ##  5 The Fellowship Of The Ring 01: Prologue  Elrond     Gollum     
    ##  6 The Fellowship Of The Ring 01: Prologue  Galadriel  Gollum     
    ##  7 The Fellowship Of The Ring 03: The Shire Bilbo      Frodo      
    ##  8 The Fellowship Of The Ring 03: The Shire Bilbo      Gandalf    
    ##  9 The Fellowship Of The Ring 03: The Shire Bilbo      Hobbit Kids
    ## 10 The Fellowship Of The Ring 03: The Shire Bilbo      Hobbits    
    ## # ℹ 1,491 more rows

    # Count co-occurrences across all chapters
    co_occurrence <- pairs_list %>%
      group_by(Character1, Character2) %>%
      summarise(count = n(), .groups = "drop") %>%
      filter(count > 5) %>%   # only keep pairs appearing in >5 chapters to reduce clutter
      mutate(Character1 = factor(Character1),
             Character2 = factor(Character2))

    print(co_occurrence) # looks good!!

    ## # A tibble: 73 × 3
    ##    Character1 Character2 count
    ##    <fct>      <fct>      <int>
    ##  1 Aragorn    Boromir       13
    ##  2 Aragorn    Eomer          6
    ##  3 Aragorn    Eowyn         14
    ##  4 Aragorn    Frodo         12
    ##  5 Aragorn    Gamling        7
    ##  6 Aragorn    Gandalf       18
    ##  7 Aragorn    Gimli         39
    ##  8 Aragorn    Legolas       31
    ##  9 Aragorn    Merry         18
    ## 10 Aragorn    Pippin        12
    ## # ℹ 63 more rows
…
