…
<!-- -->

    frodo_chapters<-lotr_data%>%
      group_by(Film,Chapter)%>%
      summarise(total_words=sum(Words),frodo_words=sum(Words[Character=="Frodo"]),.groups="drop")%>%
      mutate(
        frodo_percent=frodo_words/total_words*100,
        other_percent=100-frodo_percent)%>%
        arrange(Film)
        
    frodo_chapters

    ## # A tibble: 188 × 6
    ##    Film              Chapter total_words frodo_words frodo_percent other_percent
    ##    <chr>             <chr>         <dbl>       <dbl>         <dbl>         <dbl>
    ##  1 The Fellowship O… 01: Pr…         489           0          0            100  
    ##  2 The Fellowship O… 02: Co…         214           0          0            100  
    ##  3 The Fellowship O… 03: Th…         417         128         30.7           69.3
    ##  4 The Fellowship O… 04: Ve…         411           0          0            100  
    ##  5 The Fellowship O… 05: A …         423          32          7.57          92.4
    ##  6 The Fellowship O… 06: Fa…         330           0          0            100  
    ##  7 The Fellowship O… 07: Ke…          99          33         33.3           66.7
    ##  8 The Fellowship O… 08: Th…         124           0          0            100  
    ##  9 The Fellowship O… 09: At…         290          17          5.86          94.1
    ## 10 The Fellowship O… 10: Th…         797         139         17.4           82.6
    ## # ℹ 178 more rows
…
