…
    data <- read_csv("atp_matches_qual_chall_2024.csv", show_col_types = FALSE)
      
    top50 <-  
      data %>% select(name = winner_name, rank = winner_rank, winner_name, winner_rank, loser_rank, tourney_date, w_1stIn, w_1stWon, l_1stIn, l_1stWon, surface) %>%
      bind_rows(data %>% #creating a single dataset that includes all players (as either winners or losers) along with relevant match information. This allows for analyzing the players regardless of their match outcomes.
          select(name = loser_name, rank = loser_rank, winner_name, winner_rank, loser_rank, tourney_date, w_1stIn, w_1stWon, l_1stIn, l_1stWon, surface)) %>%
      group_by(name) %>%
      arrange(desc(tourney_date)) %>% 
      filter(rank <= 50)  #choosing players within top50 based on rank
    top50

    ## # A tibble: 44 × 11
    ## # Groups:   name [13]
    ##    name   rank loser_rank tourney_date w_1stIn w_1stWon l_1stIn l_1stWon surface
    ##    <chr> <dbl>      <dbl>        <dbl>   <dbl>    <dbl>   <dbl>    <dbl> <chr>  
    ##  1 Seba…    45        272     20240520      31       25      40       22 Clay   
    ##  2 Seba…    45       1402     20240520      28       21      46       28 Clay   
    ##  3 Arth…    34         51     20240513      39       29      45       24 Clay   
    ##  4 Arth…    34        115     20240513      31       24      44       22 Clay   
    ##  5 Arth…    34         94     20240513      51       37      37       23 Clay   
    ##  6 Arth…    34        112     20240513      36       21      48       29 Clay   
    ##  7 Lore…    29        132     20240513      32       28      34       20 Clay   
    ##  8 Lore…    47        101     20240513      40       29      26       21 Clay   
    ##  9 Lore…    29        114     20240513      44       31      25       16 Clay   
    ## 10 Matt…    37         92     20240513      25       17      44       33 Clay   
    ## # ℹ 34 more rows
    ## # ℹ 2 more variables: winner_name <chr>, winner_rank <dbl>
…
