…
    print(df1)

    ## # A tibble: 25 × 3
    ##    country OCEAN value
    ##    <chr>   <fct> <dbl>
    ##  1 AU      O      3.34
    ##  2 AU      C      3.10
    ##  3 AU      E      3.05
    ##  4 AU      A      3.20
    ##  5 AU      N      3.09
    ##  6 BR      O      3.41
    ##  7 BR      C      3.23
    ##  8 BR      E      3.00
    ##  9 BR      A      3.11
    ## 10 BR      N      3.35
    ## # ℹ 15 more rows
…
