…
    # Map the expected education to numerical values
    data <- data %>%
      mutate(EXP_ED_NUM = isced_mapping[EXP_ED],
             ED_PARENTS = as.numeric(ED_PARENTS)) %>%
      select(CNT, CNTSTUID, EXP_ED, EXP_ED_NUM, ED_PARENTS)

    print(data)

    ## # A tibble: 11,564 × 5
    ##    CNT   CNTSTUID EXP_ED  EXP_ED_NUM ED_PARENTS
    ##    <chr>    <dbl> <chr>        <dbl>      <dbl>
    ##  1 EST   23300001 ISCED_2          1         10
    ##  2 EST   23300004 ISCED_2          1          9
    ##  3 EST   23300005 ISCED_2          1         10
    ##  4 EST   23300006 ISCED_2          1         10
    ##  5 EST   23300007 ISCED_2          1          9
    ##  6 EST   23300012 ISCED_2          1          8
    ##  7 EST   23300013 ISCED_2          1          8
    ##  8 EST   23300015 ISCED_2          1         10
    ##  9 EST   23300018 ISCED_2          1         10
    ## 10 EST   23300019 ISCED_2          1          8
    ## # ℹ 11,554 more rows
…
