…
    clean_data$EXP_ED <- apply(clean_data[, education_columns], 1, exp_level)

    # drop the NA values and only keep relevant columns
    clean_data <- clean_data[!is.na(clean_data$EXP_ED), ]
    clean_data %>%
      select(CNT, CNTSTUID, EXP_ED, ED_PARENTS) 

    ## # A tibble: 13,886 × 4
    ##    CNT   CNTSTUID EXP_ED    ED_PARENTS
    ##    <chr>    <dbl> <chr>          <dbl>
    ##  1 EST   23300001 ISCED_8           10
    ##  2 EST   23300002 ISCED_3_4         10
    ##  3 EST   23300003 ISCED_4           10
    ##  4 EST   23300004 ISCED_7            9
    ##  5 EST   23300005 ISCED_5           10
    ##  6 EST   23300006 ISCED_8           10
    ##  7 EST   23300007 ISCED_8            9
    ##  8 EST   23300010 ISCED_7            9
    ##  9 EST   23300012 ISCED_5            8
    ## 10 EST   23300013 ISCED_6            8
    ## # ℹ 13,876 more rows
…
