…
\#Create table to show amount of type per epoch

    df$epoch <- factor(df$epoch, ordered = TRUE, 
                            levels = c("antonine", "cypro-archaic", "cypro-classical","early imperial", "hellenistic",
                                       "hellenistic-roman", "julian-claudian"))
    df_cleaned <- df %>% filter(!is.na(typeDesc))

    count_table <- df_cleaned %>%
      group_by(typeDesc, epoch) %>%
      summarise(count = n(), .groups = 'drop')
    print(count_table)

    ## # A tibble: 25 × 3
    ##    typeDesc                                                     epoch      count
    ##    <chr>                                                        <ord>      <int>
    ##  1 Cippus                                                       <NA>           3
    ##  2 Double niche with symposium scene                            cypro-cla…     3
    ##  3 Double niche with symposium scene                            hellenist…     6
    ##  4 Frameless, crowned with plant ornamentation                  cypro-cla…     5
    ##  5 Frameless, crowned with plant ornamentation                  hellenist…     1
    ##  6 Frameless, narrow, mostly crowned with anthemion             cypro-cla…     4
    ##  7 Frameless, narrow, mostly crowned with anthemion             hellenist…     1
    ##  8 Grave stelae with guard animals, crowned by two sphinxes     cypro-arc…     2
    ##  9 Grave stelae with guard animals, crowned by two sphinxes     cypro-cla…     2
    ## 10 Grave stelae with guard animals, with two antithetical lions cypro-arc…    12
    ## # ℹ 15 more rows
…
