…
    `arrange(desc(sum_wins_along))`

to get the total win count per driver.

        -> to know to apply the `cumSum()`-function here, was probably  the hardest.

-   the rest is just same selecting and arranging and factorizing.

------------------------------------------------------------------------

#### **Let’s have a look in the output:**

------------------------------------------------------------------------

    ## # A tibble: 118 × 7
    ##    year  forename  surname    nationality  wins sum_wins_along constructor
    ##    <fct> <chr>     <chr>      <chr>       <int>          <int> <fct>      
    ##  1 2020  Lewis     Hamilton   British        11             93 Mercedes   
    ##  2 2019  Lewis     Hamilton   British        11             82 Mercedes   
    ##  3 2018  Lewis     Hamilton   British        11             71 Mercedes   
    ##  4 2017  Lewis     Hamilton   British         9             60 Mercedes   
    ##  5 2000  Michael   Schumacher German          9             56 Ferrari    
    ##  6 2010  Michael   Schumacher German          0             56 Mercedes   
    ##  7 2011  Michael   Schumacher German          0             56 Mercedes   
    ##  8 2012  Michael   Schumacher German          0             56 Mercedes   
    ##  9 2019  Sebastian Vettel     German          1             52 Ferrari    
    ## 10 2020  Sebastian Vettel     German          0             52 Ferrari    
    ## # ℹ 108 more rows
…
        long_df <- long_df%>%
          pivot_longer(cols = all_of(columns), names_to = names_to, values_to = values_to )
      }
      return(long_df)
    }

------------------------------------------------------------------------

To finally create our:

**final\_long\_picture:**:

------------------------------------------------------------------------

    ## # A tibble: 1,416 × 6
    ##    factor_typ  fact_wert characte_typ char_wert integer_typ    inte_wert
    ##    <chr>       <fct>     <chr>        <chr>     <chr>              <int>
    ##  1 year        2020      forename     Lewis     wins                  11
    ##  2 year        2020      forename     Lewis     sum_wins_along        93
    ##  3 year        2020      surname      Hamilton  wins                  11
    ##  4 year        2020      surname      Hamilton  sum_wins_along        93
    ##  5 year        2020      nationality  British   wins                  11
    ##  6 year        2020      nationality  British   sum_wins_along        93
    ##  7 constructor Mercedes  forename     Lewis     wins                  11
    ##  8 constructor Mercedes  forename     Lewis     sum_wins_along        93
    ##  9 constructor Mercedes  surname      Hamilton  wins                  11
    ## 10 constructor Mercedes  surname      Hamilton  sum_wins_along        93
    ## # ℹ 1,406 more rows
…
After the first attempts i already recognized, the
`final-long_picture`data structure **sucks** for the task.

**Let’s** try it with the `pipe_hammer` structure, before we’d tried to
*“tidy up”* the data.

Ok i see, for better computation we should bring the fore-surname
together in one cell as `full_name`

    name_combined <- pipe_hammer %>%
      mutate(full_name = paste(forename, surname, sep = " "))%>%
      dplyr::select(-c(forename, surname))
    name_combined

    ## # A tibble: 118 × 6
    ##    year  nationality  wins sum_wins_along constructor full_name         
    ##    <fct> <chr>       <int>          <int> <fct>       <chr>             
    ##  1 2020  British        11             93 Mercedes    Lewis Hamilton    
    ##  2 2019  British        11             82 Mercedes    Lewis Hamilton    
    ##  3 2018  British        11             71 Mercedes    Lewis Hamilton    
    ##  4 2017  British         9             60 Mercedes    Lewis Hamilton    
    ##  5 2000  German          9             56 Ferrari     Michael Schumacher
    ##  6 2010  German          0             56 Mercedes    Michael Schumacher
    ##  7 2011  German          0             56 Mercedes    Michael Schumacher
    ##  8 2012  German          0             56 Mercedes    Michael Schumacher
    ##  9 2019  German          1             52 Ferrari     Sebastian Vettel  
    ## 10 2020  German          0             52 Ferrari     Sebastian Vettel  
    ## # ℹ 108 more rows
…
